{"timestamp":1735053173118,"content":{"success":true,"data":{"phoneNumbers":[{"phoneNumber":"13476811000","messageCount":245,"lastStatus":"sent","lastDate":"2024-12-24T14:04:55.021462Z"},{"phoneNumber":"19176786224","messageCount":104,"lastStatus":"sent","lastDate":"2024-12-22T23:31:51.832539Z"},{"phoneNumber":"19173787887","messageCount":104,"lastStatus":"sent","lastDate":"2024-12-22T23:31:51.030619Z"},{"phoneNumber":"19173787871","messageCount":104,"lastStatus":"sent","lastDate":"2024-12-22T23:31:50.230786Z"},{"phoneNumber":"16462473130","messageCount":95,"lastStatus":"sent","lastDate":"2024-12-22T23:31:49.43203Z"},{"phoneNumber":"16266778205","messageCount":95,"lastStatus":"sent","lastDate":"2024-12-22T23:31:48.631055Z"},{"phoneNumber":"19176691070","messageCount":28,"lastStatus":"sent","lastDate":"2024-12-24T03:58:12.946Z"},{"phoneNumber":"16462398575","messageCount":14,"lastStatus":"sent","lastDate":"2024-12-23T20:35:20.295634Z"},{"phoneNumber":"19175741859","messageCount":14,"lastStatus":"sent","lastDate":"2024-12-23T20:35:20.295398Z"},{"phoneNumber":"19293001989","messageCount":14,"lastStatus":"sent","lastDate":"2024-12-23T20:35:20.273626Z"}],"total":42,"page":1,"limit":10,"hasMore":true}}}